Compute Unit   , Kernel Name  , Module Name  , FF    , LUT   , DSP , BRAM
buildTable_1   , buildTable   , buildTable   ,12951,14828,8,60
calcBucket_1   , calcBucket   , calcBucket   ,17409,16027,8,4
prefixSum_1    , prefixSum    , prefixSum    ,1676,2333,0,2
shuffleInput_1 , shuffleInput , shuffleInput ,5671,7243,4,4
queryTable_1   , queryTable   , queryTable   ,6062,7022,12,4
,Total,,43769,47453,32,74
,,,"866,400",433200,"3,600","52,920"
,,,5.1,11,0.9,0.1