\relax 
\citation{Garcia:2011:CPH:2070781.2024195}
\citation{Alcantara:2009:RPH:1618452.1618500}
\providecommand \oddpage@label [2]{}
\@writefile{toc}{\contentsline {section}{\numberline {1}Introduction}{\thepage }}
\@writefile{toc}{\contentsline {section}{\numberline {2}Background and our approach}{\thepage }}
\@writefile{toc}{\contentsline {subsection}{\numberline {2.1}Parallel Cuckoo Hashing on GPU}{\thepage }}
\citation{Alcantara201239}
\citation{sdx:1}
\citation{xilinx:7}
\@writefile{lof}{\contentsline {figure}{\numberline {1}{\ignorespaces A sample black and white graphic.}}{\thepage }}
\@writefile{toc}{\contentsline {subsection}{\numberline {2.2}Our Approach: Parallel Two Level Hashing on FPGAs}{\thepage }}
\newlabel{eq:1}{{1}{\thepage }}
\newlabel{eq:2}{{2}{\thepage }}
\@writefile{loa}{\contentsline {algocf}{\numberline {1}{\ignorespaces stage 1: reshuffling the input key-values}}{\thepage }}
\bibstyle{unsrt}
\bibdata{sig-alternate-sample}
\@writefile{loa}{\contentsline {algocf}{\numberline {2}{\ignorespaces stage 2: hashing the reshuffled key-values inside workgroup}}{\thepage }}
\@writefile{lof}{\contentsline {figure}{\numberline {2}{\ignorespaces Execution time for each kernel}}{\thepage }}
\newlabel{result1}{{2}{\thepage }}
\@writefile{toc}{\contentsline {section}{\numberline {3}Result}{\thepage }}
\@writefile{lof}{\contentsline {figure}{\numberline {3}{\ignorespaces Total execution time of building and look up}}{\thepage }}
\newlabel{result2}{{3}{\thepage }}
\@writefile{lot}{\contentsline {table}{\numberline {1}{\ignorespaces Area utilization of the kernels on \textit  {Xilinx Virtex-7 XC7VX690T-2}}}{\thepage }}
\newlabel{table}{{1}{\thepage }}
\@writefile{toc}{\contentsline {section}{\numberline {4}Conclusions}{\thepage }}
\@writefile{toc}{\contentsline {subsection}{\numberline {4.1}Further work}{\thepage }}
